sok1004_c3_h22
…
# løs oppgave II her

#Slett variabler
df <- subset(df, select = -c(year, month))

#Sorter ut 2011+ og endrer variabelnavn
#df %>%
  #filter(dato >= as.Date("2010-12-31"))
df_2011 <- subset(df, dato > as.Date("2010-12-31") ) %>%
  rename(gruppe=konsumgruppe, variabel=statistikkvariabel, verdi=value)

df_2011

# A tibble: 26,226 x 4
   gruppe                variabel                    verdi dato      
   <chr>                 <chr>                       <dbl> <date>    
 1 Brød og kornprodukter Konsumprisindeks (2015=100)  91.5 2011-01-01
 2 Brød og kornprodukter Konsumprisindeks (2015=100)  93.9 2011-02-01
 3 Brød og kornprodukter Konsumprisindeks (2015=100)  93.3 2011-03-01
 4 Brød og kornprodukter Konsumprisindeks (2015=100)  93.6 2011-04-01
 5 Brød og kornprodukter Konsumprisindeks (2015=100)  94   2011-05-01
 6 Brød og kornprodukter Konsumprisindeks (2015=100)  92   2011-06-01
 7 Brød og kornprodukter Konsumprisindeks (2015=100)  95.2 2011-07-01
 8 Brød og kornprodukter Konsumprisindeks (2015=100)  94.4 2011-08-01
 9 Brød og kornprodukter Konsumprisindeks (2015=100)  95.6 2011-09-01
10 Brød og kornprodukter Konsumprisindeks (2015=100)  93.9 2011-10-01
# ... with 26,216 more rows
…
#Summerer vektene per måned
vekter_sum <- df_vekter %>% 
  group_by(dato) %>% 
  summarise(vekter = sum(vekter, na.rm=TRUE))

#1 - vekter for å se avvik
vekter_sum <- vekter_sum %>%
  mutate(avvik=1-vekter)

#Viser det nye datasettet
vekter_sum

# A tibble: 141 x 3
   dato       vekter  avvik
   <date>      <dbl>  <dbl>
 1 2011-01-01  0.949 0.0514
 2 2011-02-01  0.949 0.0514
 3 2011-03-01  0.949 0.0514
 4 2011-04-01  0.949 0.0514
 5 2011-05-01  0.949 0.0514
 6 2011-06-01  0.949 0.0514
 7 2011-07-01  0.949 0.0514
 8 2011-08-01  0.949 0.0514
 9 2011-09-01  0.949 0.0514
10 2011-10-01  0.949 0.0514
# ... with 131 more rows
…
